a:84:{i:0;a:3:{i:0;s:14:"document_start";i:1;a:0:{}i:2;i:0;}i:1;a:3:{i:0;s:6:"header";i:1;a:3:{i:0;s:21:"40123211 MyPlayGround";i:1;i:1;i:2;i:1;}i:2;i:1;}i:2;a:3:{i:0;s:12:"section_open";i:1;a:1:{i:0;i:1;}i:2;i:1;}i:3;a:3:{i:0;s:6:"p_open";i:1;a:0:{}i:2;i:1;}i:4;a:3:{i:0;s:5:"cdata";i:1;a:1:{i:0;s:21:"dokuwiki 資料展示";}i:2;i:38;}i:5;a:3:{i:0;s:7:"p_close";i:1;a:0:{}i:2;i:59;}i:6;a:3:{i:0;s:13:"section_close";i:1;a:0:{}i:2;i:61;}i:7;a:3:{i:0;s:6:"header";i:1;a:3:{i:0;s:18:"遠端圖片引用";i:1;i:1;i:2;i:61;}i:2;i:61;}i:8;a:3:{i:0;s:12:"section_open";i:1;a:1:{i:0;i:1;}i:2;i:61;}i:9;a:3:{i:0;s:6:"p_open";i:1;a:0:{}i:2;i:61;}i:10;a:3:{i:0;s:5:"cdata";i:1;a:1:{i:0;s:35:"CMSimply 網站上的圖片引用 (";}i:2;i:95;}i:11;a:3:{i:0;s:14:"multiplyentity";i:1;a:2:{i:0;s:3:"480";i:1;s:3:"320";}i:2;i:130;}i:12;a:3:{i:0;s:5:"cdata";i:1;a:1:{i:0;s:17:" 為圖片大小)";}i:2;i:137;}i:13;a:3:{i:0;s:7:"p_close";i:1;a:0:{}i:2;i:154;}i:14;a:3:{i:0;s:6:"p_open";i:1;a:0:{}i:2;i:154;}i:15;a:3:{i:0;s:13:"externalmedia";i:1;a:7:{i:0;s:63:"https://first-anselhsiao.rhcloud.com/downloads/cadp_final_2.png";i:1;N;i:2;N;i:3;s:3:"480";i:4;s:3:"320";i:5;s:5:"cache";i:6;s:7:"details";}i:2;i:156;}i:16;a:3:{i:0;s:5:"cdata";i:1;a:1:{i:0;s:1:"
";}i:2;i:231;}i:17;a:3:{i:0;s:13:"externalmedia";i:1;a:7:{i:0;s:54:"https://first-anselhsiao.rhcloud.com/downloads/cc5.JPG";i:1;N;i:2;N;i:3;s:3:"480";i:4;s:3:"320";i:5;s:5:"cache";i:6;s:7:"details";}i:2;i:232;}i:18;a:3:{i:0;s:7:"p_close";i:1;a:0:{}i:2;i:298;}i:19;a:3:{i:0;s:13:"section_close";i:1;a:0:{}i:2;i:300;}i:20;a:3:{i:0;s:6:"header";i:1;a:3:{i:0;s:24:"遠端零件檔案引用";i:1;i:1;i:2;i:300;}i:2;i:300;}i:21;a:3:{i:0;s:12:"section_open";i:1;a:1:{i:0;i:1;}i:2;i:300;}i:22;a:3:{i:0;s:6:"p_open";i:1;a:0:{}i:2;i:300;}i:23;a:3:{i:0;s:13:"internalmedia";i:1;a:7:{i:0;s:60:"url>https://first-anselhsiao.rhcloud.com/static/viewstl.html";i:1;N;i:2;N;i:3;N;i:4;N;i:5;s:5:"cache";i:6;s:7:"details";}i:2;i:340;}i:24;a:3:{i:0;s:7:"p_close";i:1;a:0:{}i:2;i:426;}i:25;a:3:{i:0;s:13:"section_close";i:1;a:0:{}i:2;i:428;}i:26;a:3:{i:0;s:6:"header";i:1;a:3:{i:0;s:22:"Python 程式碼引用";i:1;i:1;i:2;i:428;}i:2;i:428;}i:27;a:3:{i:0;s:12:"section_open";i:1;a:1:{i:0;i:1;}i:2;i:428;}i:28;a:3:{i:0;s:4:"code";i:1;a:3:{i:0;s:788:"
import hashlib
import string
import random
 
''' sha1 secure hashes '''
 
# convert user_password into sha1 encoded string
def gen_password(user_password):
    return hashlib.sha1(user_password.encode("utf-8")).hexdigest()
 
# generate random user password
def user_password(size=6, chars=string.ascii_uppercase + string.digits):
    return ''.join(random.choice(chars) for _ in range(size))
 
# read lines from file
lines = open("2b_stud_list.txt", "r", encoding="utf-8").read().splitlines()
 
# we may also need to notice every user with computer generated passwords
for i in range(len(lines)):
    password = user_password(8, "ABCDEFGHJKMNPQRSTUVWXYZ23456789")
    print(lines[i].split("\t")[0], "-", password, "-", gen_password(password), \
            "-", lines[i].split("\t")[1])
";i:1;s:6:"python";i:2;N;}i:2;i:471;}i:29;a:3:{i:0;s:13:"section_close";i:1;a:0:{}i:2;i:1276;}i:30;a:3:{i:0;s:6:"header";i:1;a:3:{i:0;s:18:"內部頁面引用";i:1;i:1;i:2;i:1276;}i:2;i:1276;}i:31;a:3:{i:0;s:12:"section_open";i:1;a:1:{i:0;i:1;}i:2;i:1276;}i:32;a:3:{i:0;s:10:"listo_open";i:1;a:0:{}i:2;i:1308;}i:33;a:3:{i:0;s:13:"listitem_open";i:1;a:1:{i:0;i:1;}i:2;i:1308;}i:34;a:3:{i:0;s:16:"listcontent_open";i:1;a:0:{}i:2;i:1308;}i:35;a:3:{i:0;s:5:"cdata";i:1;a:1:{i:0;s:18:" 2014s2b-第五組";}i:2;i:1312;}i:36;a:3:{i:0;s:17:"listcontent_close";i:1;a:0:{}i:2;i:1330;}i:37;a:3:{i:0;s:14:"listitem_close";i:1;a:0:{}i:2;i:1330;}i:38;a:3:{i:0;s:11:"listo_close";i:1;a:0:{}i:2;i:1330;}i:39;a:3:{i:0;s:10:"listu_open";i:1;a:0:{}i:2;i:1330;}i:40;a:3:{i:0;s:13:"listitem_open";i:1;a:1:{i:0;i:1;}i:2;i:1330;}i:41;a:3:{i:0;s:16:"listcontent_open";i:1;a:0:{}i:2;i:1330;}i:42;a:3:{i:0;s:5:"cdata";i:1;a:1:{i:0;s:1:" ";}i:2;i:1334;}i:43;a:3:{i:0;s:12:"internallink";i:1;a:2:{i:0;s:26:"2014s2b:第五組:40123211";i:1;N;}i:2;i:1335;}i:44;a:3:{i:0;s:17:"listcontent_close";i:1;a:0:{}i:2;i:1365;}i:45;a:3:{i:0;s:14:"listitem_close";i:1;a:0:{}i:2;i:1365;}i:46;a:3:{i:0;s:13:"listitem_open";i:1;a:1:{i:0;i:1;}i:2;i:1365;}i:47;a:3:{i:0;s:16:"listcontent_open";i:1;a:0:{}i:2;i:1365;}i:48;a:3:{i:0;s:5:"cdata";i:1;a:1:{i:0;s:1:" ";}i:2;i:1369;}i:49;a:3:{i:0;s:12:"internallink";i:1;a:2:{i:0;s:26:"2014s2b:第五組:40123208";i:1;N;}i:2;i:1370;}i:50;a:3:{i:0;s:17:"listcontent_close";i:1;a:0:{}i:2;i:1400;}i:51;a:3:{i:0;s:14:"listitem_close";i:1;a:0:{}i:2;i:1400;}i:52;a:3:{i:0;s:13:"listitem_open";i:1;a:1:{i:0;i:1;}i:2;i:1400;}i:53;a:3:{i:0;s:16:"listcontent_open";i:1;a:0:{}i:2;i:1400;}i:54;a:3:{i:0;s:5:"cdata";i:1;a:1:{i:0;s:1:" ";}i:2;i:1404;}i:55;a:3:{i:0;s:12:"internallink";i:1;a:2:{i:0;s:26:"2014s2b:第五組:40123209";i:1;N;}i:2;i:1405;}i:56;a:3:{i:0;s:17:"listcontent_close";i:1;a:0:{}i:2;i:1435;}i:57;a:3:{i:0;s:14:"listitem_close";i:1;a:0:{}i:2;i:1435;}i:58;a:3:{i:0;s:11:"listu_close";i:1;a:0:{}i:2;i:1435;}i:59;a:3:{i:0;s:13:"section_close";i:1;a:0:{}i:2;i:1437;}i:60;a:3:{i:0;s:6:"header";i:1;a:3:{i:0;s:24:"排序列表資料引用";i:1;i:1;i:2;i:1437;}i:2;i:1437;}i:61;a:3:{i:0;s:12:"section_open";i:1;a:1:{i:0;i:1;}i:2;i:1437;}i:62;a:3:{i:0;s:6:"p_open";i:1;a:0:{}i:2;i:1437;}i:63;a:3:{i:0;s:5:"cdata";i:1;a:1:{i:0;s:43:"協同產品設計實習期中成績來源:";}i:2;i:1477;}i:64;a:3:{i:0;s:7:"p_close";i:1;a:0:{}i:2;i:1521;}i:65;a:3:{i:0;s:10:"listo_open";i:1;a:0:{}i:2;i:1521;}i:66;a:3:{i:0;s:13:"listitem_open";i:1;a:1:{i:0;i:1;}i:2;i:1521;}i:67;a:3:{i:0;s:16:"listcontent_open";i:1;a:0:{}i:2;i:1521;}i:68;a:3:{i:0;s:5:"cdata";i:1;a:1:{i:0;s:86:" 各組每週成員協同設計自評成績總和/週數, 佔各學員期中成績 50%";}i:2;i:1525;}i:69;a:3:{i:0;s:17:"listcontent_close";i:1;a:0:{}i:2;i:1611;}i:70;a:3:{i:0;s:14:"listitem_close";i:1;a:0:{}i:2;i:1611;}i:71;a:3:{i:0;s:13:"listitem_open";i:1;a:1:{i:0;i:1;}i:2;i:1611;}i:72;a:3:{i:0;s:16:"listcontent_open";i:1;a:0:{}i:2;i:1611;}i:73;a:3:{i:0;s:5:"cdata";i:1;a:1:{i:0;s:143:" 各組期中報告成績(由老師與助教評分), 佔各學員期中成績 25%, 學員期中報告自評成績, 佔各學員期中成績 25%";}i:2;i:1615;}i:74;a:3:{i:0;s:17:"listcontent_close";i:1;a:0:{}i:2;i:1758;}i:75;a:3:{i:0;s:14:"listitem_close";i:1;a:0:{}i:2;i:1758;}i:76;a:3:{i:0;s:13:"listitem_open";i:1;a:1:{i:0;i:1;}i:2;i:1758;}i:77;a:3:{i:0;s:16:"listcontent_open";i:1;a:0:{}i:2;i:1758;}i:78;a:3:{i:0;s:5:"cdata";i:1;a:1:{i:0;s:47:" 平常表現, 加減分在總分 10 分以內.";}i:2;i:1762;}i:79;a:3:{i:0;s:17:"listcontent_close";i:1;a:0:{}i:2;i:1809;}i:80;a:3:{i:0;s:14:"listitem_close";i:1;a:0:{}i:2;i:1809;}i:81;a:3:{i:0;s:11:"listo_close";i:1;a:0:{}i:2;i:1809;}i:82;a:3:{i:0;s:13:"section_close";i:1;a:0:{}i:2;i:1809;}i:83;a:3:{i:0;s:12:"document_end";i:1;a:0:{}i:2;i:1809;}}